AR_ProblemH1_Answer
…
Answer H.1.b

library(tidyr)
LAozone_long <- gather(LAozone,variable,value,vh:doy,factor_key = FALSE)
LAozone_long[2:4]

## # A tibble: 2,970 x 3
##       id variable value
##    <int>    <chr> <int>
##  1     1       vh  5710
##  2     2       vh  5700
##  3     3       vh  5760
##  4     4       vh  5720
##  5     5       vh  5790
##  6     6       vh  5790
##  7     7       vh  5700
##  8     8       vh  5700
##  9     9       vh  5770
## 10    10       vh  5720
## # ... with 2,960 more rows
…
